﻿Anupong promked


0950197638
0896529296

35/9 หมู่บ้านเจ้าฟ้ากาต์เด้นโฮม 5(ข้างวังถลาง) ม.3 ต.วิชิต อ.เมือง จ.ภูเก็ต 83000
35/9 Baan Chao Fah nougat Garden Home 5 (beside Thalang) Moo 3 Tambol vichit, Amphur muang, Phuket 83000, Thailand

วีแชท ID:app0950197638
Location: https://www.google.com/maps?q=7.8678109999999997,98.348769000000004

+66950197638 What App

*****************************************


Username:	info@happytaxiphuket.com
Password:	xFhco8UN
Pop/Imap Server:	mail.happytaxiphuket.com
Smtp Server:	mail.happytaxiphuket.com


Username:	admin@happytaxiphuket.com
Password:	1RoYk8geO
Pop/Imap Server:	mail.happytaxiphuket.com
Smtp Server:	mail.happytaxiphuket.com

